Cours_2
…
Nous avons vu jusqu prsent une srie de fonctions: summary(), mean() Elles sont fournies avec R, mais il est possible den inventer soit mme, et donc de les mettre  disposition des autres. Pour cela on les met dans un package, disponible en ligne, et que lon peut tlcharger avec la fonction install.packages() et on lactive avec library().

(pensez  retirer le # qui est un commentaire, et dsactive la ligne)

#install.packages("rtweet")
library(rtweet)

Nous pouvons dsormais moissonner tweeter:

tweets_UniGE <- search_tweets("Sciences_UNIGE", n = 1000)

#View(tweets)
tweets_UniGE

## # A tibble: 228 x 90
##    user_id status_id created_at          screen_name text  source
##    <chr>   <chr>     <dttm>              <chr>       <chr> <chr> 
##  1 279970 14485401 2021-10-14 06:44:30 egaliteuni "Rej Twitt
##  2 279970 14453599 2021-10-05 12:07:24 egaliteuni "12- Twitt
##  3 279970 14482891 2021-10-13 14:07:03 egaliteuni "12- Twitt
##  4 141035 14457353 2021-10-06 12:58:58 simed_hug   "Chr Twitt
##  5 141035 14482893 2021-10-13 14:07:46 simed_hug   "Jou Twitt
##  6 115939 14454080 2021-10-05 15:18:32 sciences_U "Ple Twitt
##  7 115939 14458142 2021-10-06 18:12:30 sciences_U "In Twitt
##  8 115939 14482873 2021-10-13 13:59:44 sciences_U "Tom Twitt
##  9 115939 14478670 2021-10-12 10:09:29 sciences_U " F Twitt
## 10 115939 14453779 2021-10-05 13:18:48 sciences_U "#Ed Twitt
## #  with 218 more rows, and 84 more variables: display_text_width <dbl>,
## #   reply_to_status_id <chr>, reply_to_user_id <chr>,
## #   reply_to_screen_name <chr>, is_quote <lgl>, is_retweet <lgl>,
## #   favorite_count <int>, retweet_count <int>, quote_count <int>,
## #   reply_count <int>, hashtags <list>, symbols <list>, urls_url <list>,
## #   urls_t.co <list>, urls_expanded_url <list>, media_url <list>,
## #   media_t.co <list>, media_expanded_url <list>, media_type <list>,
## #   ext_media_url <list>, ext_media_t.co <list>,
## #   ext_media_expanded_url <list>, ext_media_type <chr>,
…
